2016-02-15 00:46:43 STEP TWO: false, STEP THREE false
2016-02-15 00:54:53 STEP TWO: false, STEP THREE false
2016-02-15 00:57:28 STEP TWO: false, STEP THREE false
2016-02-15 00:59:01 STEP TWO: false, STEP THREE false
2016-02-15 01:00:11 STEP TWO: true, STEP THREE false
2016-02-15 22:46:57 STEP TWO: true, STEP THREE false
2016-02-15 22:48:41 STEP TWO: true, STEP THREE false
2016-02-15 22:53:06 STEP TWO: true, STEP THREE false
2016-02-15 23:00:04 STEP TWO: true, STEP THREE false
2016-02-15 23:04:34 STEP TWO: true, STEP THREE false
2016-02-15 23:19:46 STEP TWO: true, STEP THREE false
2016-02-15 23:22:05 STEP TWO: false, STEP THREE false
2016-02-15 23:22:31 STEP TWO: false, STEP THREE false
2016-02-15 23:42:12 STEP TWO: true, STEP THREE false
2016-02-15 23:45:39 STEP TWO: false, STEP THREE false
2016-02-15 23:47:51 STEP TWO: true, STEP THREE false
2016-02-15 23:50:05 STEP TWO: true, STEP THREE false
2016-02-15 23:54:14 STEP TWO: true, STEP THREE false
2016-02-15 23:58:23 STEP TWO: true, STEP THREE false
2016-02-16 00:05:36 STEP TWO: true, STEP THREE false
2016-02-16 00:06:56 STEP TWO: true, STEP THREE false
2016-02-16 00:18:13 STEP TWO: true, STEP THREE false
2016-02-16 00:18:39 STEP TWO: true, STEP THREE false
2016-02-16 00:21:28 STEP TWO: true, STEP THREE false
2016-02-16 00:23:29 STEP TWO: true, STEP THREE false
2016-02-16 00:25:16 STEP TWO: true, STEP THREE false
2016-02-16 00:27:32 STEP TWO: true, STEP THREE false
2016-02-16 00:28:08 STEP TWO: true, STEP THREE false
2016-02-16 00:30:17 STEP TWO: true, STEP THREE false
2016-02-16 00:32:00 STEP TWO: true, STEP THREE false
2016-02-16 00:33:09 STEP TWO: true, STEP THREE false
2016-02-16 00:35:41 STEP TWO: true, STEP THREE false
2016-02-16 00:38:43 STEP TWO: true, STEP THREE false
2016-02-16 00:39:46 STEP TWO: true, STEP THREE false
2016-02-16 20:08:17 STEP TWO: true, STEP THREE false
